VERSION: STEJSKALTANNER
    1.0000    0.0000    0.0000        0.000      0.000    0.000    0.000 
    1.0000    0.0000    0.0000        0.108      0.040    0.007    0.047 
    0.0000    1.0000    0.0000        0.108      0.040    0.007    0.047 
    0.0000    0.0000    1.0000        0.108      0.040    0.007    0.047 

